{
  "apps": [
    {
      "name": "p04xoso-backend",
      "script": "src/index.js",
      "instances": 1,
      "autorestart": true,
      "watch": false,
      "time": true,
      "cwd": "/home/p04xoso-backend",
      "error_file": "/home/p04xoso-backend/logs/web.err.log",
      "out_file": "/home/p04xoso-backend/logs/web.out.log",
      "exec_mode": "cluster",
      "env": {
        "NODE_ENV": "production"
      },
      "env_production": {
        "NODE_ENV": "production"
      }
    }
  ],
  "deploy": {
    "production": {
      "user": "root",
      "host": [
        "103.21.221.215"
      ],
      "ref": "origin/develop",
      "repo": "git@gitlab.com:izisoftware2020/p04xoso-backend.git",
      "path": "/home/p04xoso-backend",
      "post-setup": "yarn install; yarn build; pm2 start ecosystem.config1.json --env production",
      "post-deploy": "yarn install; yarn build; pm2 restart ecosystem.config1.json --env production",
      "ssh_options": [
        "StrictHostKeyChecking=no",
        "PasswordAuthentication=no"
      ]
    }
  }
}
